id	non-coll	coll	total	genotype	pct_coll
199	65,61156652152137	2,5805626925543876	68,19212921407575	dko	0,0378425299561071
201	136,88516036714412	3,816466967051127	140,70162733419525	mir-21	0,02712454034370359
202	108,52749190061077	3,5800261523427888	112,10751805295355	mir-21	0,03193386326376236
204	235,87454126182354	6,647262126617119	242,52180338844065	mir-21	0,02740892585220628
206	134,80446647957942	3,9424007916289545	138,74686727120837	mir-21	0,028414340944525596
208	171,06736909322353	5,006388569982666	176,0737576632062	mir-21	0,02843347376932162
209	113,84382794303137	3,959990615417324	117,8038185584487	dko	0,03361512949134636
210	98,53996921718038	3,649620292012705	102,18958950919308	dko	0,0357142083605726
213	130,33565033797157	4,584050233081814	134,9197005710534	dko	0,03397613701838668
301	116,53338289114117	4,11639569879574	120,64977858993691	dko	0,03411855162027689
302	97,7127349933003	3,7113437605130692	101,42407875381338	dy3k	0,036592333951798686
303	145,75512453400685	4,720889320793126	150,4760138548	wt	0,031373035474932844
304	103,20145958850686	3,2735660215927247	106,47502561009959	wt	0,03074491884679306
305	150,44341047442646	4,5492204863205155	154,99263096074696	wt	0,029351205009692617
306	177,42968903506568	5,099086986344064	182,52877602140975	wt	0,02793579783686253
307	209,2680253747314	6,167796692116362	215,43582206684775	wt	0,02862939242389574
311	100,14134281316078	4,075261341994584	104,21660415515537	dy3k	0,03910376254370585
378	71,11373710905029	3,339136791738217	74,4528739007885	dy3k	0,04484899798747532
380	129,97232224088233	4,650925469136259	134,6232477100186	dy3k	0,03454771407056271
